[gd_scene load_steps=3 format=3 uid="uid://cpguibx4y2oid"]

[ext_resource type="PackedScene" uid="uid://yviqi5n8d8rc" path="res://scenes/entity/Entity.tscn" id="1_a5l1n"]
[ext_resource type="Script" path="res://scenes/character/Character.gd" id="2_y5soy"]

[node name="Character" instance=ExtResource("1_a5l1n")]
collision_layer = 2
collision_mask = 7
script = ExtResource("2_y5soy")
type = 1
initial_target_path = NodePath("")
realtime_mode = false
passable = false

[node name="RayCast" type="RayCast2D" parent="." index="2"]
collision_mask = 3
collide_with_areas = true

[connection signal="area_entered" from="." to="." method="_on_area_entered"]
